ST558_HW3 - Lee Worthington
…
Rows: 214 Columns: 11
── Column specification ────────────────────────────────────────────────────────
Delimiter: ","
dbl (11): id, ri, na, mg, al, si, k, ca, ba, fe, type_of_glass

ℹ Use `spec()` to retrieve the full column specification for this data.
ℹ Specify the column types or set `show_col_types = FALSE` to quiet this message.

# call tibble
glass_data

# A tibble: 214 × 11
      id    ri    na    mg    al    si     k    ca    ba    fe type_of_glass
   <dbl> <dbl> <dbl> <dbl> <dbl> <dbl> <dbl> <dbl> <dbl> <dbl>         <dbl>
 1     1  1.52  13.6  4.49  1.1   71.8  0.06  8.75     0  0                1
 2     2  1.52  13.9  3.6   1.36  72.7  0.48  7.83     0  0                1
 3     3  1.52  13.5  3.55  1.54  73.0  0.39  7.78     0  0                1
 4     4  1.52  13.2  3.69  1.29  72.6  0.57  8.22     0  0                1
 5     5  1.52  13.3  3.62  1.24  73.1  0.55  8.07     0  0                1
 6     6  1.52  12.8  3.61  1.62  73.0  0.64  8.07     0  0.26             1
 7     7  1.52  13.3  3.6   1.14  73.1  0.58  8.17     0  0                1
 8     8  1.52  13.2  3.61  1.05  73.2  0.57  8.24     0  0                1
 9     9  1.52  14.0  3.58  1.37  72.1  0.56  8.3      0  0                1
10    10  1.52  13    3.6   1.36  73.0  0.57  8.4      0  0.11             1
# ℹ 204 more rows
…
  # update type_of_glass field
  mutate(type_of_glass = ifelse(type_of_glass == 1, 'building_windows_float_processed',
                ifelse(type_of_glass == 2, 'building_windows_non_float_processed',
                       ifelse(type_of_glass == 3, 'vehicle_windows_float_processed',
                              ifelse(type_of_glass == 4, 'vehicle_windows_non_float_processed',
                                     ifelse(type_of_glass == 5, 'containers',
                                            ifelse(type_of_glass == 6, 'tableware',
                                                   ifelse(type_of_glass == 7, 'headlamps', NA)))))))) |>
  
  # filter on fe variable (& or , should work)
  filter(fe < 0.2 & type_of_glass %in% c('tableware', 'headlamps'))

# A tibble: 38 × 11
      id    ri    na    mg    al    si     k    ca    ba    fe type_of_glass
   <dbl> <dbl> <dbl> <dbl> <dbl> <dbl> <dbl> <dbl> <dbl> <dbl> <chr>        
 1   177  1.52  14    2.39  1.56  72.4  0     9.57  0        0 tableware    
 2   178  1.52  13.8  2.41  1.19  72.8  0     9.77  0        0 tableware    
 3   179  1.52  14.5  2.24  1.62  72.4  0     9.26  0        0 tableware    
 4   180  1.52  14.1  2.19  1.66  72.7  0     9.32  0        0 tableware    
 5   181  1.51  14.4  1.74  1.54  74.6  0     7.59  0        0 tableware    
 6   182  1.52  15.0  0.78  1.74  72.5  0     9.95  0        0 tableware    
 7   183  1.52  14.2  0     2.09  72.7  0    10.9   0        0 tableware    
 8   184  1.52  14.6  0     0.56  73.5  0    11.2   0        0 tableware    
 9   185  1.51  17.4  0     0.34  75.4  0     6.65  0        0 tableware    
10   186  1.51  13.7  3.2   1.81  72.8  1.76  5.43  1.19     0 headlamps    
# ℹ 28 more rows
…
# call tibble
yeast_data 

# A tibble: 1,484 × 10
   seq_name     mcg   gvh   alm   mit   erl   pox   vac   nuc class
   <chr>      <dbl> <dbl> <dbl> <dbl> <dbl> <dbl> <dbl> <dbl> <chr>
 1 ADT1_YEAST  0.58  0.61  0.47  0.13   0.5   0    0.48  0.22 MIT  
 2 ADT2_YEAST  0.43  0.67  0.48  0.27   0.5   0    0.53  0.22 MIT  
 3 ADT3_YEAST  0.64  0.62  0.49  0.15   0.5   0    0.53  0.22 MIT  
 4 AAR2_YEAST  0.58  0.44  0.57  0.13   0.5   0    0.54  0.22 NUC  
 5 AATM_YEAST  0.42  0.44  0.48  0.54   0.5   0    0.48  0.22 MIT  
 6 AATC_YEAST  0.51  0.4   0.56  0.17   0.5   0.5  0.49  0.22 CYT  
 7 ABC1_YEAST  0.5   0.54  0.48  0.65   0.5   0    0.53  0.22 MIT  
 8 BAF1_YEAST  0.48  0.45  0.59  0.2    0.5   0    0.58  0.34 NUC  
 9 ABF2_YEAST  0.55  0.5   0.66  0.36   0.5   0    0.49  0.22 MIT  
10 ABP1_YEAST  0.4   0.39  0.6   0.15   0.5   0    0.58  0.3  CYT  
# ℹ 1,474 more rows

# apply chain
yeast_data |>
  # filter data
  select(-seq_name, -nuc) |>
  # group by class
  group_by(class) |>
  # create new columns using mutate with summary stats using across on numeric columns
  mutate(across(where(is.numeric), mean, .names = 'mea_{.col}')) |>
  mutate(across(where(is.numeric), median, .names = 'median_{.col}'))

# A tibble: 1,484 × 29
# Groups:   class [10]
     mcg   gvh   alm   mit   erl   pox   vac class mea_mcg mea_gvh mea_alm
   <dbl> <dbl> <dbl> <dbl> <dbl> <dbl> <dbl> <chr>   <dbl>   <dbl>   <dbl>
 1  0.58  0.61  0.47  0.13   0.5   0    0.48 MIT     0.521   0.533   0.517
 2  0.43  0.67  0.48  0.27   0.5   0    0.53 MIT     0.521   0.533   0.517
 3  0.64  0.62  0.49  0.15   0.5   0    0.53 MIT     0.521   0.533   0.517
 4  0.58  0.44  0.57  0.13   0.5   0    0.54 NUC     0.452   0.456   0.529
 5  0.42  0.44  0.48  0.54   0.5   0    0.48 MIT     0.521   0.533   0.517
 6  0.51  0.4   0.56  0.17   0.5   0.5  0.49 CYT     0.481   0.470   0.535
 7  0.5   0.54  0.48  0.65   0.5   0    0.53 MIT     0.521   0.533   0.517
 8  0.48  0.45  0.59  0.2    0.5   0    0.58 NUC     0.452   0.456   0.529
 9  0.55  0.5   0.66  0.36   0.5   0    0.49 MIT     0.521   0.533   0.517
10  0.4   0.39  0.6   0.15   0.5   0    0.58 CYT     0.481   0.470   0.535
# ℹ 1,474 more rows
# ℹ 18 more variables: mea_mit <dbl>, mea_erl <dbl>, mea_pox <dbl>,
#   mea_vac <dbl>, median_mcg <dbl>, median_gvh <dbl>, median_alm <dbl>,
#   median_mit <dbl>, median_erl <dbl>, median_pox <dbl>, median_vac <dbl>,
#   median_mea_mcg <dbl>, median_mea_gvh <dbl>, median_mea_alm <dbl>,
#   median_mea_mit <dbl>, median_mea_erl <dbl>, median_mea_pox <dbl>,
#   median_mea_vac <dbl>
…
Part 1

# load library
library(readxl)

Warning: package 'readxl' was built under R version 4.2.3

# load data
white_wine <- read_excel('white-wine.xlsx')

# print tibble
white_wine

# A tibble: 4,898 × 12
   `fixed acidity` `volatile acidity` `citric acid` `residual sugar` chlorides
             <dbl>              <dbl>         <dbl>            <dbl>     <dbl>
 1               7               0.27          0.36             20.7     0.045
 2              63               0.3           0.34              1.6     0.049
 3              81               0.28          0.4               6.9     0.05 
 4              72               0.23          0.32              8.5     0.058
 5              72               0.23          0.32              8.5     0.058
 6              81               0.28          0.4               6.9     0.05 
 7              62               0.32          0.16              7       0.045
 8               7               0.27          0.36             20.7     0.045
 9              63               0.3           0.34              1.6     0.049
10              81               0.22          0.43              1.5     0.044
# ℹ 4,888 more rows
# ℹ 7 more variables: `free sulfur dioxide` <dbl>,
#   `total sulfur dioxide` <dbl>, density <dbl>, pH <dbl>, sulphates <dbl>,
#   alcohol <dbl>, quality <dbl>
Part 2

# load variable names into a tibble
field_names <- read_excel(
  'white-wine.xlsx',
  sheet = excel_sheets('white-wine.xlsx')[2]
)
  
# update white_wine fuse field_names vector
colnames(white_wine) <- field_names[[1]]

# print results
white_wine

# A tibble: 4,898 × 12
   fixed_acidity volatile_acidity citric_acid residual_sugar chlorides
           <dbl>            <dbl>       <dbl>          <dbl>     <dbl>
 1             7             0.27        0.36           20.7     0.045
 2            63             0.3         0.34            1.6     0.049
 3            81             0.28        0.4             6.9     0.05 
 4            72             0.23        0.32            8.5     0.058
 5            72             0.23        0.32            8.5     0.058
 6            81             0.28        0.4             6.9     0.05 
 7            62             0.32        0.16            7       0.045
 8             7             0.27        0.36           20.7     0.045
 9            63             0.3         0.34            1.6     0.049
10            81             0.22        0.43            1.5     0.044
# ℹ 4,888 more rows
# ℹ 7 more variables: free_sulfur_dioxide <dbl>, total_sulfur_dioxide <dbl>,
#   density <dbl>, pH <dbl>, sulphates <dbl>, alcohol <dbl>, quality <dbl>
…
ℹ Use `spec()` to retrieve the full column specification for this data.
ℹ Specify the column types or set `show_col_types = FALSE` to quiet this message.

# update red_wine fuse field_names vector
colnames(red_wine) <- field_names[[1]]

# add new column to white_wine
red_wine <- red_wine |>
  mutate(type = 'red')

red_wine

# A tibble: 1,599 × 13
   fixed_acidity volatile_acidity citric_acid residual_sugar chlorides
           <dbl>            <dbl>       <dbl>          <dbl>     <dbl>
 1           7.4             0.7         0               1.9     0.076
 2           7.8             0.88        0               2.6     0.098
 3           7.8             0.76        0.04            2.3     0.092
 4          11.2             0.28        0.56            1.9     0.075
 5           7.4             0.7         0               1.9     0.076
 6           7.4             0.66        0               1.8     0.075
 7           7.9             0.6         0.06            1.6     0.069
 8           7.3             0.65        0               1.2     0.065
 9           7.8             0.58        0.02            2       0.073
10           7.5             0.5         0.36            6.1     0.071
# ℹ 1,589 more rows
# ℹ 8 more variables: free_sulfur_dioxide <dbl>, total_sulfur_dioxide <dbl>,
#   density <dbl>, pH <dbl>, sulphates <dbl>, alcohol <dbl>, quality <dbl>,
#   type <chr>
…
# part 6
wine |>
  # filter on quality 6
  filter(quality > 6.5 & alcohol < 132) |>
  # sort rows by descending quality 7
  arrange(desc(quality)) |>
  # select specified fields
  select(contains('acid'), alcohol, type, quality) |>
  # mean and stddev for alcohol by quality
  group_by(quality) |>
  mutate(alcohol_mean = mean(alcohol), alcohol_stddev = sd(alcohol))

# A tibble: 1,206 × 8
# Groups:   quality [3]
   fixed_acidity volatile_acidity citric_acid alcohol type  quality alcohol_mean
           <dbl>            <dbl>       <dbl>   <dbl> <chr>   <dbl>        <dbl>
 1            91             0.27        0.45     104 white       9        122. 
 2            66             0.36        0.29     124 white       9        122. 
 3            74             0.24        0.36     125 white       9        122. 
 4            69             0.36        0.34     127 white       9        122. 
 5            71             0.26        0.49     129 white       9        122. 
 6            62             0.66        0.48     128 white       8         94.1
 7            62             0.66        0.48     128 white       8         94.1
 8            68             0.26        0.42     105 white       8         94.1
 9            67             0.23        0.31     107 white       8         94.1
10            67             0.23        0.31     107 white       8         94.1
# ℹ 1,196 more rows
# ℹ 1 more variable: alcohol_stddev <dbl>
…
